Image_index,Finding Label,Target,PID,Class
00000003_000.png,Hernia,5,00003,Extrathoracic abnormal findings
00000003_001.png,Hernia,5,00003,Extrathoracic abnormal findings
00000003_002.png,Hernia,5,00003,Extrathoracic abnormal findings
00000003_004.png,Hernia,5,00003,Extrathoracic abnormal findings
00000003_005.png,Hernia,5,00003,Extrathoracic abnormal findings
00000003_006.png,Hernia,5,00003,Extrathoracic abnormal findings
00000003_007.png,Hernia,5,00003,Extrathoracic abnormal findings
00000111_000.png,Hernia,5,00111,Extrathoracic abnormal findings
00000284_000.png,Hernia,5,00284,Extrathoracic abnormal findings
00000284_001.png,Hernia,5,00284,Extrathoracic abnormal findings
00000284_002.png,Hernia,5,00284,Extrathoracic abnormal findings
00000284_003.png,Hernia,5,00284,Extrathoracic abnormal findings
00000385_001.png,Hernia,5,00385,Extrathoracic abnormal findings
00000634_000.png,Hernia,5,00634,Extrathoracic abnormal findings
00000942_001.png,Hernia,5,00942,Extrathoracic abnormal findings
00000942_002.png,Hernia,5,00942,Extrathoracic abnormal findings
00001205_003.png,Hernia,5,01205,Extrathoracic abnormal findings
00001386_000.png,Hernia,5,01386,Extrathoracic abnormal findings
00001438_000.png,Hernia,5,01438,Extrathoracic abnormal findings
00002089_000.png,Hernia,5,02089,Extrathoracic abnormal findings
00002089_001.png,Hernia,5,02089,Extrathoracic abnormal findings
00002280_000.png,Hernia,5,02280,Extrathoracic abnormal findings
00003029_005.png,Hernia,5,03029,Extrathoracic abnormal findings
00003029_006.png,Hernia,5,03029,Extrathoracic abnormal findings
00003029_007.png,Hernia,5,03029,Extrathoracic abnormal findings
00003029_008.png,Hernia,5,03029,Extrathoracic abnormal findings
00003240_000.png,Hernia,5,03240,Extrathoracic abnormal findings
00003272_000.png,Hernia,5,03272,Extrathoracic abnormal findings
00003938_000.png,Hernia,5,03938,Extrathoracic abnormal findings
00003938_001.png,Hernia,5,03938,Extrathoracic abnormal findings
00004082_012.png,Hernia,5,04082,Extrathoracic abnormal findings
00004269_000.png,Hernia,5,04269,Extrathoracic abnormal findings
00005195_000.png,Hernia,5,05195,Extrathoracic abnormal findings
00005203_000.png,Hernia,5,05203,Extrathoracic abnormal findings
00005736_003.png,Hernia,5,05736,Extrathoracic abnormal findings
00006031_001.png,Hernia,5,06031,Extrathoracic abnormal findings
00006153_001.png,Hernia,5,06153,Extrathoracic abnormal findings
00006378_003.png,Hernia,5,06378,Extrathoracic abnormal findings
00006508_000.png,Hernia,5,06508,Extrathoracic abnormal findings
00006713_013.png,Hernia,5,06713,Extrathoracic abnormal findings
00006713_017.png,Hernia,5,06713,Extrathoracic abnormal findings
00006868_009.png,Hernia,5,06868,Extrathoracic abnormal findings
00007352_000.png,Hernia,5,07352,Extrathoracic abnormal findings
00007712_002.png,Hernia,5,07712,Extrathoracic abnormal findings
00007887_000.png,Hernia,5,07887,Extrathoracic abnormal findings
00007894_005.png,Hernia,5,07894,Extrathoracic abnormal findings
00008015_000.png,Hernia,5,08015,Extrathoracic abnormal findings
00008447_001.png,Hernia,5,08447,Extrathoracic abnormal findings
00008508_003.png,Hernia,5,08508,Extrathoracic abnormal findings
00008694_000.png,Hernia,5,08694,Extrathoracic abnormal findings
00008694_002.png,Hernia,5,08694,Extrathoracic abnormal findings
00008694_004.png,Hernia,5,08694,Extrathoracic abnormal findings
00008994_000.png,Hernia,5,08994,Extrathoracic abnormal findings
00009984_006.png,Hernia,5,09984,Extrathoracic abnormal findings
00010022_000.png,Hernia,5,10022,Extrathoracic abnormal findings
00011805_001.png,Hernia,5,11805,Extrathoracic abnormal findings
00011922_000.png,Hernia,5,11922,Extrathoracic abnormal findings
00012053_001.png,Hernia,5,12053,Extrathoracic abnormal findings
00012609_002.png,Hernia,5,12609,Extrathoracic abnormal findings
00012833_000.png,Hernia,5,12833,Extrathoracic abnormal findings
00012883_001.png,Hernia,5,12883,Extrathoracic abnormal findings
00013278_001.png,Hernia,5,13278,Extrathoracic abnormal findings
00013380_000.png,Hernia,5,13380,Extrathoracic abnormal findings
00013380_003.png,Hernia,5,13380,Extrathoracic abnormal findings
00013380_008.png,Hernia,5,13380,Extrathoracic abnormal findings
00013380_013.png,Hernia,5,13380,Extrathoracic abnormal findings
00013679_001.png,Hernia,5,13679,Extrathoracic abnormal findings
00013716_000.png,Hernia,5,13716,Extrathoracic abnormal findings
00013716_001.png,Hernia,5,13716,Extrathoracic abnormal findings
00013716_002.png,Hernia,5,13716,Extrathoracic abnormal findings
00014005_000.png,Hernia,5,14005,Extrathoracic abnormal findings
00014125_027.png,Hernia,5,14125,Extrathoracic abnormal findings
00014404_001.png,Hernia,5,14404,Extrathoracic abnormal findings
00017136_020.png,Hernia,5,17136,Extrathoracic abnormal findings
00017202_000.png,Hernia,5,17202,Extrathoracic abnormal findings
00017755_002.png,Hernia,5,17755,Extrathoracic abnormal findings
00018120_000.png,Hernia,5,18120,Extrathoracic abnormal findings
00018347_000.png,Hernia,5,18347,Extrathoracic abnormal findings
00019027_001.png,Hernia,5,19027,Extrathoracic abnormal findings
00019059_000.png,Hernia,5,19059,Extrathoracic abnormal findings
00019059_001.png,Hernia,5,19059,Extrathoracic abnormal findings
00019850_000.png,Hernia,5,19850,Extrathoracic abnormal findings
00020405_024.png,Hernia,5,20405,Extrathoracic abnormal findings
00020741_000.png,Hernia,5,20741,Extrathoracic abnormal findings
00020915_000.png,Hernia,5,20915,Extrathoracic abnormal findings
00020915_001.png,Hernia,5,20915,Extrathoracic abnormal findings
00020915_002.png,Hernia,5,20915,Extrathoracic abnormal findings
00020915_003.png,Hernia,5,20915,Extrathoracic abnormal findings
00021463_001.png,Hernia,5,21463,Extrathoracic abnormal findings
00021463_009.png,Hernia,5,21463,Extrathoracic abnormal findings
00021463_010.png,Hernia,5,21463,Extrathoracic abnormal findings
00021902_000.png,Hernia,5,21902,Extrathoracic abnormal findings
00021943_000.png,Hernia,5,21943,Extrathoracic abnormal findings
00022024_006.png,Hernia,5,22024,Extrathoracic abnormal findings
00022803_000.png,Hernia,5,22803,Extrathoracic abnormal findings
00024458_001.png,Hernia,5,24458,Extrathoracic abnormal findings
00024466_000.png,Hernia,5,24466,Extrathoracic abnormal findings
00024601_000.png,Hernia,5,24601,Extrathoracic abnormal findings
00025599_000.png,Hernia,5,25599,Extrathoracic abnormal findings
00026751_003.png,Hernia,5,26751,Extrathoracic abnormal findings
00026791_002.png,Hernia,5,26791,Extrathoracic abnormal findings
00027403_000.png,Hernia,5,27403,Extrathoracic abnormal findings
00027671_000.png,Hernia,5,27671,Extrathoracic abnormal findings
00028307_000.png,Hernia,5,28307,Extrathoracic abnormal findings
00028948_000.png,Hernia,5,28948,Extrathoracic abnormal findings
00028948_002.png,Hernia,5,28948,Extrathoracic abnormal findings
00028948_005.png,Hernia,5,28948,Extrathoracic abnormal findings
00029188_001.png,Hernia,5,29188,Extrathoracic abnormal findings
00029425_000.png,Hernia,5,29425,Extrathoracic abnormal findings
00029817_021.png,Hernia,5,29817,Extrathoracic abnormal findings
